^C:\USERS\ASUS\DOCUMENTS\VISUAL STUDIO 2015\PROJECTS\FROLICENGINE\FROLICENGINE\MAIN.CPP
/c /ZI /nologo /W3 /WX- /sdl /Od /Oy- /D _MBCS /Gm /EHsc /RTC1 /MDd /GS /fp:precise /Zc:wchar_t /Zc:forScope /Zc:inline /Fo"DEBUG\\" /Fd"DEBUG\VC140.PDB" /Gd /TP /analyze- C:\USERS\ASUS\DOCUMENTS\VISUAL STUDIO 2015\PROJECTS\FROLICENGINE\FROLICENGINE\MAIN.CPP
^C:\USERS\ASUS\DOCUMENTS\VISUAL STUDIO 2015\PROJECTS\FROLICENGINE\FROLICENGINE\GAMEOBJECT.CPP
/c /ZI /nologo /W3 /WX- /sdl /Od /Oy- /D _MBCS /Gm /EHsc /RTC1 /MDd /GS /fp:precise /Zc:wchar_t /Zc:forScope /Zc:inline /Fo"DEBUG\\" /Fd"DEBUG\VC140.PDB" /Gd /TP /analyze- C:\USERS\ASUS\DOCUMENTS\VISUAL STUDIO 2015\PROJECTS\FROLICENGINE\FROLICENGINE\GAMEOBJECT.CPP
^C:\USERS\ASUS\DOCUMENTS\VISUAL STUDIO 2015\PROJECTS\FROLICENGINE\FROLICENGINE\OBJECT.CPP
/c /ZI /nologo /W3 /WX- /sdl /Od /Oy- /D _MBCS /Gm /EHsc /RTC1 /MDd /GS /fp:precise /Zc:wchar_t /Zc:forScope /Zc:inline /Fo"DEBUG\\" /Fd"DEBUG\VC140.PDB" /Gd /TP /analyze- C:\USERS\ASUS\DOCUMENTS\VISUAL STUDIO 2015\PROJECTS\FROLICENGINE\FROLICENGINE\OBJECT.CPP
^C:\USERS\ASUS\DOCUMENTS\VISUAL STUDIO 2015\PROJECTS\FROLICENGINE\FROLICENGINE\SCENE.CPP
/c /ZI /nologo /W3 /WX- /sdl /Od /Oy- /D _MBCS /Gm /EHsc /RTC1 /MDd /GS /fp:precise /Zc:wchar_t /Zc:forScope /Zc:inline /Fo"DEBUG\\" /Fd"DEBUG\VC140.PDB" /Gd /TP /analyze- C:\USERS\ASUS\DOCUMENTS\VISUAL STUDIO 2015\PROJECTS\FROLICENGINE\FROLICENGINE\SCENE.CPP
^C:\USERS\ASUS\DOCUMENTS\VISUAL STUDIO 2015\PROJECTS\FROLICENGINE\FROLICENGINE\TRANSFORM.CPP
/c /ZI /nologo /W3 /WX- /sdl /Od /Oy- /D _MBCS /Gm /EHsc /RTC1 /MDd /GS /fp:precise /Zc:wchar_t /Zc:forScope /Zc:inline /Fo"DEBUG\\" /Fd"DEBUG\VC140.PDB" /Gd /TP /analyze- C:\USERS\ASUS\DOCUMENTS\VISUAL STUDIO 2015\PROJECTS\FROLICENGINE\FROLICENGINE\TRANSFORM.CPP
^C:\USERS\ASUS\DOCUMENTS\VISUAL STUDIO 2015\PROJECTS\FROLICENGINE\FROLICENGINE\COMPONENT.CPP
/c /ZI /nologo /W3 /WX- /sdl /Od /Oy- /D _MBCS /Gm /EHsc /RTC1 /MDd /GS /fp:precise /Zc:wchar_t /Zc:forScope /Zc:inline /Fo"DEBUG\\" /Fd"DEBUG\VC140.PDB" /Gd /TP /analyze- C:\USERS\ASUS\DOCUMENTS\VISUAL STUDIO 2015\PROJECTS\FROLICENGINE\FROLICENGINE\COMPONENT.CPP
