^C:\USERS\ASUS\DOCUMENTS\VISUAL STUDIO 2015\PROJECTS\FROLICENGINE\FROLICENGINE\MAIN.CPP
C:\USERS\ASUS\DOCUMENTS\VISUAL STUDIO 2015\PROJECTS\FROLICENGINE\FROLICENGINE\DEBUG\VC140.PDB
C:\USERS\ASUS\DOCUMENTS\VISUAL STUDIO 2015\PROJECTS\FROLICENGINE\FROLICENGINE\DEBUG\VC140.IDB
C:\USERS\ASUS\DOCUMENTS\VISUAL STUDIO 2015\PROJECTS\FROLICENGINE\FROLICENGINE\DEBUG\MAIN.OBJ
^C:\USERS\ASUS\DOCUMENTS\VISUAL STUDIO 2015\PROJECTS\FROLICENGINE\FROLICENGINE\GAMEOBJECT.CPP|C:\USERS\ASUS\DOCUMENTS\VISUAL STUDIO 2015\PROJECTS\FROLICENGINE\FROLICENGINE\MAIN.CPP|C:\USERS\ASUS\DOCUMENTS\VISUAL STUDIO 2015\PROJECTS\FROLICENGINE\FROLICENGINE\OBJECT.CPP
C:\USERS\ASUS\DOCUMENTS\VISUAL STUDIO 2015\PROJECTS\FROLICENGINE\FROLICENGINE\DEBUG\VC140.PDB
C:\USERS\ASUS\DOCUMENTS\VISUAL STUDIO 2015\PROJECTS\FROLICENGINE\FROLICENGINE\DEBUG\VC140.IDB
C:\USERS\ASUS\DOCUMENTS\VISUAL STUDIO 2015\PROJECTS\FROLICENGINE\FROLICENGINE\DEBUG\GAMEOBJECT.OBJ
C:\USERS\ASUS\DOCUMENTS\VISUAL STUDIO 2015\PROJECTS\FROLICENGINE\FROLICENGINE\DEBUG\MAIN.OBJ
C:\USERS\ASUS\DOCUMENTS\VISUAL STUDIO 2015\PROJECTS\FROLICENGINE\FROLICENGINE\DEBUG\OBJECT.OBJ
^C:\USERS\ASUS\DOCUMENTS\VISUAL STUDIO 2015\PROJECTS\FROLICENGINE\FROLICENGINE\GAMEOBJECT.CPP
C:\USERS\ASUS\DOCUMENTS\VISUAL STUDIO 2015\PROJECTS\FROLICENGINE\FROLICENGINE\DEBUG\VC140.PDB
C:\USERS\ASUS\DOCUMENTS\VISUAL STUDIO 2015\PROJECTS\FROLICENGINE\FROLICENGINE\DEBUG\VC140.IDB
C:\USERS\ASUS\DOCUMENTS\VISUAL STUDIO 2015\PROJECTS\FROLICENGINE\FROLICENGINE\DEBUG\GAMEOBJECT.OBJ
^C:\USERS\ASUS\DOCUMENTS\VISUAL STUDIO 2015\PROJECTS\FROLICENGINE\FROLICENGINE\OBJECT.CPP
C:\USERS\ASUS\DOCUMENTS\VISUAL STUDIO 2015\PROJECTS\FROLICENGINE\FROLICENGINE\DEBUG\VC140.PDB
C:\USERS\ASUS\DOCUMENTS\VISUAL STUDIO 2015\PROJECTS\FROLICENGINE\FROLICENGINE\DEBUG\VC140.IDB
^C:\USERS\ASUS\DOCUMENTS\VISUAL STUDIO 2015\PROJECTS\FROLICENGINE\FROLICENGINE\GAMEOBJECT.CPP|C:\USERS\ASUS\DOCUMENTS\VISUAL STUDIO 2015\PROJECTS\FROLICENGINE\FROLICENGINE\MAIN.CPP|C:\USERS\ASUS\DOCUMENTS\VISUAL STUDIO 2015\PROJECTS\FROLICENGINE\FROLICENGINE\OBJECT.CPP|C:\USERS\ASUS\DOCUMENTS\VISUAL STUDIO 2015\PROJECTS\FROLICENGINE\FROLICENGINE\SCENE.CPP
C:\USERS\ASUS\DOCUMENTS\VISUAL STUDIO 2015\PROJECTS\FROLICENGINE\FROLICENGINE\DEBUG\VC140.PDB
C:\USERS\ASUS\DOCUMENTS\VISUAL STUDIO 2015\PROJECTS\FROLICENGINE\FROLICENGINE\DEBUG\VC140.IDB
C:\USERS\ASUS\DOCUMENTS\VISUAL STUDIO 2015\PROJECTS\FROLICENGINE\FROLICENGINE\DEBUG\GAMEOBJECT.OBJ
C:\USERS\ASUS\DOCUMENTS\VISUAL STUDIO 2015\PROJECTS\FROLICENGINE\FROLICENGINE\DEBUG\MAIN.OBJ
C:\USERS\ASUS\DOCUMENTS\VISUAL STUDIO 2015\PROJECTS\FROLICENGINE\FROLICENGINE\DEBUG\OBJECT.OBJ
C:\USERS\ASUS\DOCUMENTS\VISUAL STUDIO 2015\PROJECTS\FROLICENGINE\FROLICENGINE\DEBUG\SCENE.OBJ
^C:\USERS\ASUS\DOCUMENTS\VISUAL STUDIO 2015\PROJECTS\FROLICENGINE\FROLICENGINE\SCENE.CPP
C:\USERS\ASUS\DOCUMENTS\VISUAL STUDIO 2015\PROJECTS\FROLICENGINE\FROLICENGINE\DEBUG\VC140.PDB
C:\USERS\ASUS\DOCUMENTS\VISUAL STUDIO 2015\PROJECTS\FROLICENGINE\FROLICENGINE\DEBUG\VC140.IDB
^C:\USERS\ASUS\DOCUMENTS\VISUAL STUDIO 2015\PROJECTS\FROLICENGINE\FROLICENGINE\GAMEOBJECT.CPP|C:\USERS\ASUS\DOCUMENTS\VISUAL STUDIO 2015\PROJECTS\FROLICENGINE\FROLICENGINE\MAIN.CPP|C:\USERS\ASUS\DOCUMENTS\VISUAL STUDIO 2015\PROJECTS\FROLICENGINE\FROLICENGINE\SCENE.CPP
C:\USERS\ASUS\DOCUMENTS\VISUAL STUDIO 2015\PROJECTS\FROLICENGINE\FROLICENGINE\DEBUG\VC140.PDB
C:\USERS\ASUS\DOCUMENTS\VISUAL STUDIO 2015\PROJECTS\FROLICENGINE\FROLICENGINE\DEBUG\VC140.IDB
C:\USERS\ASUS\DOCUMENTS\VISUAL STUDIO 2015\PROJECTS\FROLICENGINE\FROLICENGINE\DEBUG\SCENE.OBJ
C:\USERS\ASUS\DOCUMENTS\VISUAL STUDIO 2015\PROJECTS\FROLICENGINE\FROLICENGINE\DEBUG\MAIN.OBJ
C:\USERS\ASUS\DOCUMENTS\VISUAL STUDIO 2015\PROJECTS\FROLICENGINE\FROLICENGINE\DEBUG\GAMEOBJECT.OBJ
^C:\USERS\ASUS\DOCUMENTS\VISUAL STUDIO 2015\PROJECTS\FROLICENGINE\FROLICENGINE\MAIN.CPP|C:\USERS\ASUS\DOCUMENTS\VISUAL STUDIO 2015\PROJECTS\FROLICENGINE\FROLICENGINE\SCENE.CPP
C:\USERS\ASUS\DOCUMENTS\VISUAL STUDIO 2015\PROJECTS\FROLICENGINE\FROLICENGINE\DEBUG\VC140.PDB
C:\USERS\ASUS\DOCUMENTS\VISUAL STUDIO 2015\PROJECTS\FROLICENGINE\FROLICENGINE\DEBUG\VC140.IDB
C:\USERS\ASUS\DOCUMENTS\VISUAL STUDIO 2015\PROJECTS\FROLICENGINE\FROLICENGINE\DEBUG\MAIN.OBJ
^C:\USERS\ASUS\DOCUMENTS\VISUAL STUDIO 2015\PROJECTS\FROLICENGINE\FROLICENGINE\GAMEOBJECT.CPP|C:\USERS\ASUS\DOCUMENTS\VISUAL STUDIO 2015\PROJECTS\FROLICENGINE\FROLICENGINE\MAIN.CPP|C:\USERS\ASUS\DOCUMENTS\VISUAL STUDIO 2015\PROJECTS\FROLICENGINE\FROLICENGINE\OBJECT.CPP|C:\USERS\ASUS\DOCUMENTS\VISUAL STUDIO 2015\PROJECTS\FROLICENGINE\FROLICENGINE\SCENE.CPP|C:\USERS\ASUS\DOCUMENTS\VISUAL STUDIO 2015\PROJECTS\FROLICENGINE\FROLICENGINE\TRANSFORM.CPP
C:\USERS\ASUS\DOCUMENTS\VISUAL STUDIO 2015\PROJECTS\FROLICENGINE\FROLICENGINE\DEBUG\VC140.PDB
C:\USERS\ASUS\DOCUMENTS\VISUAL STUDIO 2015\PROJECTS\FROLICENGINE\FROLICENGINE\DEBUG\VC140.IDB
C:\USERS\ASUS\DOCUMENTS\VISUAL STUDIO 2015\PROJECTS\FROLICENGINE\FROLICENGINE\DEBUG\GAMEOBJECT.OBJ
C:\USERS\ASUS\DOCUMENTS\VISUAL STUDIO 2015\PROJECTS\FROLICENGINE\FROLICENGINE\DEBUG\TRANSFORM.OBJ
C:\USERS\ASUS\DOCUMENTS\VISUAL STUDIO 2015\PROJECTS\FROLICENGINE\FROLICENGINE\DEBUG\OBJECT.OBJ
C:\USERS\ASUS\DOCUMENTS\VISUAL STUDIO 2015\PROJECTS\FROLICENGINE\FROLICENGINE\DEBUG\SCENE.OBJ
C:\USERS\ASUS\DOCUMENTS\VISUAL STUDIO 2015\PROJECTS\FROLICENGINE\FROLICENGINE\DEBUG\MAIN.OBJ
^C:\USERS\ASUS\DOCUMENTS\VISUAL STUDIO 2015\PROJECTS\FROLICENGINE\FROLICENGINE\TRANSFORM.CPP
C:\USERS\ASUS\DOCUMENTS\VISUAL STUDIO 2015\PROJECTS\FROLICENGINE\FROLICENGINE\DEBUG\VC140.PDB
^C:\USERS\ASUS\DOCUMENTS\VISUAL STUDIO 2015\PROJECTS\FROLICENGINE\FROLICENGINE\COMPONENT.CPP|C:\USERS\ASUS\DOCUMENTS\VISUAL STUDIO 2015\PROJECTS\FROLICENGINE\FROLICENGINE\GAMEOBJECT.CPP|C:\USERS\ASUS\DOCUMENTS\VISUAL STUDIO 2015\PROJECTS\FROLICENGINE\FROLICENGINE\MAIN.CPP|C:\USERS\ASUS\DOCUMENTS\VISUAL STUDIO 2015\PROJECTS\FROLICENGINE\FROLICENGINE\OBJECT.CPP|C:\USERS\ASUS\DOCUMENTS\VISUAL STUDIO 2015\PROJECTS\FROLICENGINE\FROLICENGINE\SCENE.CPP|C:\USERS\ASUS\DOCUMENTS\VISUAL STUDIO 2015\PROJECTS\FROLICENGINE\FROLICENGINE\TRANSFORM.CPP
C:\USERS\ASUS\DOCUMENTS\VISUAL STUDIO 2015\PROJECTS\FROLICENGINE\FROLICENGINE\DEBUG\VC140.PDB
C:\USERS\ASUS\DOCUMENTS\VISUAL STUDIO 2015\PROJECTS\FROLICENGINE\FROLICENGINE\DEBUG\VC140.IDB
C:\USERS\ASUS\DOCUMENTS\VISUAL STUDIO 2015\PROJECTS\FROLICENGINE\FROLICENGINE\DEBUG\TRANSFORM.OBJ
C:\USERS\ASUS\DOCUMENTS\VISUAL STUDIO 2015\PROJECTS\FROLICENGINE\FROLICENGINE\DEBUG\COMPONENT.OBJ
C:\USERS\ASUS\DOCUMENTS\VISUAL STUDIO 2015\PROJECTS\FROLICENGINE\FROLICENGINE\DEBUG\OBJECT.OBJ
C:\USERS\ASUS\DOCUMENTS\VISUAL STUDIO 2015\PROJECTS\FROLICENGINE\FROLICENGINE\DEBUG\SCENE.OBJ
C:\USERS\ASUS\DOCUMENTS\VISUAL STUDIO 2015\PROJECTS\FROLICENGINE\FROLICENGINE\DEBUG\MAIN.OBJ
^C:\USERS\ASUS\DOCUMENTS\VISUAL STUDIO 2015\PROJECTS\FROLICENGINE\FROLICENGINE\COMPONENT.CPP
C:\USERS\ASUS\DOCUMENTS\VISUAL STUDIO 2015\PROJECTS\FROLICENGINE\FROLICENGINE\DEBUG\VC140.PDB
^C:\USERS\ASUS\DOCUMENTS\VISUAL STUDIO 2015\PROJECTS\FROLICENGINE\FROLICENGINE\COMPONENT.CPP|C:\USERS\ASUS\DOCUMENTS\VISUAL STUDIO 2015\PROJECTS\FROLICENGINE\FROLICENGINE\GAMEOBJECT.CPP|C:\USERS\ASUS\DOCUMENTS\VISUAL STUDIO 2015\PROJECTS\FROLICENGINE\FROLICENGINE\MAIN.CPP|C:\USERS\ASUS\DOCUMENTS\VISUAL STUDIO 2015\PROJECTS\FROLICENGINE\FROLICENGINE\SCENE.CPP
C:\USERS\ASUS\DOCUMENTS\VISUAL STUDIO 2015\PROJECTS\FROLICENGINE\FROLICENGINE\DEBUG\VC140.PDB
C:\USERS\ASUS\DOCUMENTS\VISUAL STUDIO 2015\PROJECTS\FROLICENGINE\FROLICENGINE\DEBUG\VC140.IDB
C:\USERS\ASUS\DOCUMENTS\VISUAL STUDIO 2015\PROJECTS\FROLICENGINE\FROLICENGINE\DEBUG\SCENE.OBJ
C:\USERS\ASUS\DOCUMENTS\VISUAL STUDIO 2015\PROJECTS\FROLICENGINE\FROLICENGINE\DEBUG\GAMEOBJECT.OBJ
