^C:\USERS\ASUS\DOCUMENTS\VISUAL STUDIO 2015\PROJECTS\FROLICENGINE\FROLICENGINE\DEBUG\COMPONENT.OBJ|C:\USERS\ASUS\DOCUMENTS\VISUAL STUDIO 2015\PROJECTS\FROLICENGINE\FROLICENGINE\DEBUG\GAMEOBJECT.OBJ|C:\USERS\ASUS\DOCUMENTS\VISUAL STUDIO 2015\PROJECTS\FROLICENGINE\FROLICENGINE\DEBUG\MAIN.OBJ|C:\USERS\ASUS\DOCUMENTS\VISUAL STUDIO 2015\PROJECTS\FROLICENGINE\FROLICENGINE\DEBUG\OBJECT.OBJ|C:\USERS\ASUS\DOCUMENTS\VISUAL STUDIO 2015\PROJECTS\FROLICENGINE\FROLICENGINE\DEBUG\SCENE.OBJ|C:\USERS\ASUS\DOCUMENTS\VISUAL STUDIO 2015\PROJECTS\FROLICENGINE\FROLICENGINE\DEBUG\TRANSFORM.OBJ
C:\USERS\ASUS\DOCUMENTS\VISUAL STUDIO 2015\PROJECTS\FROLICENGINE\DEBUG\FROLICENGINE.ILK
C:\USERS\ASUS\DOCUMENTS\VISUAL STUDIO 2015\PROJECTS\FROLICENGINE\DEBUG\FROLICENGINE.EXE
C:\USERS\ASUS\DOCUMENTS\VISUAL STUDIO 2015\PROJECTS\FROLICENGINE\DEBUG\FROLICENGINE.PDB
